Initial Exploration & Cleaning
…
There is a -1 which indicates missingness. Furthermore, the value of “Unknown” is not helpful, so it should be converted to NA as well to facilitate analysis.

industry

This field contains categorical data about the industry of the company listing the job.

df_jobs |> distinct(industry)

# A tibble: 89 × 1
   industry                             
   <chr>                                
 1 Social Assistance                    
 2 Health Care Services & Hospitals     
 3 Internet                             
 4 IT Services                          
 5 Sports & Recreation                  
 6 Investment Banking & Asset Management
 7 Insurance Carriers                   
 8 Venture Capital & Private Equity     
 9 Research & Development               
10 -1                                   
# ℹ 79 more rows
…
In addition to -1, type_of_ownership has a value of “Unknown”. These will need to be cleaned up and converted to NA values.

sector

sector is related to the industry feature but is more general.

df_jobs |> distinct(sector)

# A tibble: 25 × 1
   sector                           
   <chr>                            
 1 Non-Profit                       
 2 Health Care                      
 3 Information Technology           
 4 Arts, Entertainment & Recreation 
 5 Finance                          
 6 Insurance                        
 7 Business Services                
 8 -1                               
 9 Restaurants, Bars & Food Services
10 Media                            
# ℹ 15 more rows
…
Exploring remaining features

The remaining features will need to be examined for missingness, although they will not be converted to factors.

founded

This feature contains the year the company was founded. It will not be used in this analysis and will be dropped from the dataset.

rating

rating is a numeric variable that appears to have a valid range of 1 to 5.

df_jobs |> distinct(rating) |> arrange(rating)

# A tibble: 37 × 1
   rating
    <dbl>
 1   -1  
 2    1  
 3    1.6
 4    1.7
 5    1.8
 6    1.9
 7    2  
 8    2.1
 9    2.2
10    2.3
# ℹ 27 more rows

The value -1 is present and will be converted to NA.

location

This feature indicates the city and state where the job is located. It contains two pieces of data, the city and state, so in order to make the data tidy, this field will be broken up into two new fields, city and state.

df_jobs |> distinct(location) |> arrange(location)

# A tibble: 253 × 1
   location             
   <chr>                
 1 Addison, TX          
 2 Alachua, FL          
 3 Alameda, CA          
 4 Alhambra, CA         
 5 Allegheny West, PA   
 6 Allen, TX            
 7 American Fork, UT    
 8 Anaheim, CA          
 9 Arcadia, CA          
10 Arlington Heights, IL
# ℹ 243 more rows

location does not contain any “-1” values.

headquarters

This feature contains information about where the headquarters of the listing company is located. It will not be used in the analysis and will be dropped.

salary_estimate

This feature contain the salary range of the job listing reported in thousands of dollars.

df_jobs |> distinct(salary_estimate) |> arrange(salary_estimate)

# A tibble: 90 × 1
   salary_estimate             
   <chr>                       
 1 $110K-$190K (Glassdoor est.)
 2 $113K-$132K (Glassdoor est.)
 3 $24K-$48K (Glassdoor est.)  
 4 $26K-$47K (Glassdoor est.)  
 5 $27K-$52K (Glassdoor est.)  
 6 $28K-$52K (Glassdoor est.)  
 7 $29K-$38K (Glassdoor est.)  
 8 $30K-$53K (Glassdoor est.)  
 9 $30K-$54K (Glassdoor est.)  
10 $31K-$59K (Glassdoor est.)  
# ℹ 80 more rows

salary_estimate does contain “-1” as a value. Every value also ends with the string “(Glassdoor est.)”. In addition to this, the field contains the range from low to high in the formation $AK - $BK, where A & B are 2-3 digit integers. This field should be cleaned and then split into salary_lower_end and salary_upper_end numeric variables.

company_name

The name of the company.

df_jobs |> distinct(company_name) |> arrange(company_name)

# A tibble: 1,514 × 1
   company_name                    
   <chr>                           
 1 "1"                             
 2 "1199SEIU Funds\n3.2"           
 3 "1872 Consulting\n5.0"          
 4 "2000 east westmoreland st llc" 
 5 "212 Factors"                   
 6 "22nd Century Staffing\n4.3"    
 7 "22nd Century Technologies\n3.7"
 8 "2U\n3.5"                       
 9 "360pi\n4.2"                    
10 "451 Research\n3.3"             
# ℹ 1,504 more rows
…
rm(df_miss_count)

Creating job attributes

A review of the job titles of the postings shows that not all of the positions are for data analysts. The job postings will be filtered to keep postings that meet the following rules:

if Data Analyst (ignore case) is found in job_title

if Data/(another term) Analyst (ignore case) is found in job_title

df_jobs |> 
  distinct(job_title)

# A tibble: 1,272 × 1
   job_title                                                           
   <chr>                                                               
 1 Data Analyst, Center on Immigration and Justice (CIJ)               
 2 Quality Data Analyst                                                
 3 Senior Data Analyst, Insights & Analytics Team [Customer Operations]
 4 Data Analyst                                                        
 5 Reporting Data Analyst                                              
 6 Business/Data Analyst (FP&A)                                        
 7 Data Science Analyst                                                
 8 Data Analyst, Merchant Health                                       
 9 DATA ANALYST                                                        
10 Senior Data Analyst                                                 
# ℹ 1,262 more rows
…
